<svg xmlns="http://www.w3.org/2000/svg" viewBox="0 0 200 200">
  <!-- Face -->
  <ellipse cx="100" cy="100" rx="70" ry="80" fill="#f2d6b3"/>
  
  <!-- Eyebrows (adjusted) -->
  <path d="M60 70 Q75 65 90 70" stroke="#2c2c2c" stroke-width="3" fill="none"/>
  <path d="M110 70 Q125 65 140 70" stroke="#2c2c2c" stroke-width="3" fill="none"/>
  
  <!-- Eyes -->
  <ellipse cx="75" cy="85" rx="8" ry="5" fill="#2c2c2c"/>
  <ellipse cx="125" cy="85" rx="8" ry="5" fill="#2c2c2c"/>
  
  <!-- Nose (updated) -->
  <path d="M95 90 Q100 105 105 90 L100 100" stroke="#d4a985" stroke-width="2" fill="none"/>
  
  <!-- Mouth -->
  <path d="M80 120 Q100 130 120 120" stroke="#d4a985" stroke-width="2" fill="none"/>
  
  <!-- Beard -->
  <path d="M70 130 Q100 150 130 130 Q100 140 70 130" fill="#2c2c2c"/>
</svg>
